<?xml version="1.0" encoding="UTF-8"?>
<!-- Created with Inkscape (http://www.inkscape.org/) -->
<svg xmlns:i="http://ns.adobe.com/AdobeIllustrator/10.0/" xmlns:dc="http://purl.org/dc/elements/1.1/" xmlns:cc="http://creativecommons.org/ns#" xmlns:rdf="http://www.w3.org/1999/02/22-rdf-syntax-ns#" xmlns:svg="http://www.w3.org/2000/svg" xmlns="http://www.w3.org/2000/svg" xmlns:sodipodi="http://sodipodi.sourceforge.net/DTD/sodipodi-0.dtd" xmlns:inkscape="http://www.inkscape.org/namespaces/inkscape" width="119.3091" height="84.451614" viewBox="0 0 119.3091 84.451614" version="1.1" id="svg9545" inkscape:version="0.92.4 (5da689c313, 2019-01-14)" sodipodi:docname="lamp.svg"> <defs id="defs9539"> <marker inkscape:stockid="Arrow2Mend" orient="auto" refY="0" refX="0" id="Arrow2Mend-3-5-6-9" style="overflow:visible" inkscape:isstock="true"> <path inkscape:connector-curvature="0" id="path4772-6-0-1-88" style="fill:#f57900;fill-opacity:1;fill-rule:evenodd;stroke:#f57900;stroke-width:0.625;stroke-linejoin:round;stroke-opacity:1" d="M 8.7185878,4.0337352 -2.2072895,0.01601326 8.7185884,-4.0017078 c -1.7454984,2.3720609 -1.7354408,5.6174519 -6e-7,8.035443 z" transform="scale(-0.6)"/> </marker> <marker inkscape:stockid="Arrow2Mend" orient="auto" refY="0" refX="0" id="Arrow2Mend-3-5-90" style="overflow:visible" inkscape:isstock="true"> <path inkscape:connector-curvature="0" id="path4772-6-0-8" style="fill:#f57900;fill-opacity:1;fill-rule:evenodd;stroke:#f57900;stroke-width:0.625;stroke-linejoin:round;stroke-opacity:1" d="M 8.7185878,4.0337352 -2.2072895,0.01601326 8.7185884,-4.0017078 c -1.7454984,2.3720609 -1.7354408,5.6174519 -6e-7,8.035443 z" transform="scale(-0.6)"/> </marker> <marker inkscape:stockid="Arrow2Mend" orient="auto" refY="0" refX="0" id="Arrow2Mend-3-5-6" style="overflow:visible" inkscape:isstock="true"> <path inkscape:connector-curvature="0" id="path4772-6-0-1" style="fill:#f57900;fill-opacity:1;fill-rule:evenodd;stroke:#f57900;stroke-width:0.625;stroke-linejoin:round;stroke-opacity:1" d="M 8.7185878,4.0337352 -2.2072895,0.01601326 8.7185884,-4.0017078 c -1.7454984,2.3720609 -1.7354408,5.6174519 -6e-7,8.035443 z" transform="scale(-0.6)"/> </marker> <marker inkscape:stockid="Arrow2Mend" orient="auto" refY="0" refX="0" id="Arrow2Mend-3-5" style="overflow:visible" inkscape:isstock="true"> <path inkscape:connector-curvature="0" id="path4772-6-0" style="fill:#f57900;fill-opacity:1;fill-rule:evenodd;stroke:#f57900;stroke-width:0.625;stroke-linejoin:round;stroke-opacity:1" d="M 8.7185878,4.0337352 -2.2072895,0.01601326 8.7185884,-4.0017078 c -1.7454984,2.3720609 -1.7354408,5.6174519 -6e-7,8.035443 z" transform="scale(-0.6)"/> </marker> <marker inkscape:stockid="Arrow2Mend" orient="auto" refY="0" refX="0" id="Arrow2Mend-3-1" style="overflow:visible" inkscape:isstock="true"> <path inkscape:connector-curvature="0" id="path4772-6-8" style="fill:#f57900;fill-opacity:1;fill-rule:evenodd;stroke:#f57900;stroke-width:0.625;stroke-linejoin:round;stroke-opacity:1" d="M 8.7185878,4.0337352 -2.2072895,0.01601326 8.7185884,-4.0017078 c -1.7454984,2.3720609 -1.7354408,5.6174519 -6e-7,8.035443 z" transform="scale(-0.6)"/> </marker> <marker inkscape:stockid="Arrow2Mend" orient="auto" refY="0" refX="0" id="Arrow2Mend-6" style="overflow:visible" inkscape:isstock="true"> <path inkscape:connector-curvature="0" id="path4772-2" style="fill:#3465a4;fill-opacity:1;fill-rule:evenodd;stroke:#3465a4;stroke-width:0.625;stroke-linejoin:round;stroke-opacity:1" d="M 8.7185878,4.0337352 -2.2072895,0.01601326 8.7185884,-4.0017078 c -1.7454984,2.3720609 -1.7354408,5.6174519 -6e-7,8.035443 z" transform="scale(-0.6)"/> </marker> <marker inkscape:stockid="Arrow2Mend" orient="auto" refY="0" refX="0" id="Arrow2Mend-3" style="overflow:visible" inkscape:isstock="true"> <path inkscape:connector-curvature="0" id="path4772-6" style="fill:#f57900;fill-opacity:1;fill-rule:evenodd;stroke:#f57900;stroke-width:0.625;stroke-linejoin:round;stroke-opacity:1" d="M 8.7185878,4.0337352 -2.2072895,0.01601326 8.7185884,-4.0017078 c -1.7454984,2.3720609 -1.7354408,5.6174519 -6e-7,8.035443 z" transform="scale(-0.6)"/> </marker> <marker inkscape:stockid="Arrow2Mend" orient="auto" refY="0" refX="0" id="Arrow2Mend" style="overflow:visible" inkscape:isstock="true"> <path inkscape:connector-curvature="0" id="path4772" style="fill:#3465a4;fill-opacity:1;fill-rule:evenodd;stroke:#3465a4;stroke-width:0.625;stroke-linejoin:round;stroke-opacity:1" d="M 8.7185878,4.0337352 -2.2072895,0.01601326 8.7185884,-4.0017078 c -1.7454984,2.3720609 -1.7354408,5.6174519 -6e-7,8.035443 z" transform="scale(-0.6)"/> </marker> </defs> <sodipodi:namedview id="base" pagecolor="#ffffff" bordercolor="#666666" borderopacity="1.0" inkscape:pageopacity="0.0" inkscape:pageshadow="2" inkscape:zoom="1.979899" inkscape:cx="266.25694" inkscape:cy="124.59967" inkscape:document-units="mm" inkscape:current-layer="layer1" showgrid="false" fit-margin-top="0" fit-margin-left="0" fit-margin-right="0" fit-margin-bottom="0" inkscape:window-width="1920" inkscape:window-height="1010" inkscape:window-x="0" inkscape:window-y="34" inkscape:window-maximized="1"/> <metadata id="metadata9542"> <rdf:rdf> <cc:work rdf:about=""> <dc:format>image/svg+xml</dc:format> <dc:type rdf:resource="http://purl.org/dc/dcmitype/StillImage"/> <dc:title/> </cc:work> </rdf:rdf> </metadata> <g inkscape:label="Calque 1" inkscape:groupmode="layer" id="layer1" transform="translate(-6.603338,-6.4340585)"> <rect style="display:inline;opacity:1;fill:#fcaf3e;fill-opacity:1;stroke:none;stroke-width:0.79660529;stroke-linecap:round;stroke-linejoin:round;stroke-miterlimit:4;stroke-dasharray:none;stroke-dashoffset:0;stroke-opacity:1" id="rect18649-7" width="46.972382" height="68.696686" x="78.940063" y="13.145091" ry="1.6121751"/> <rect style="display:inline;opacity:1;fill:#d2e0f0;fill-opacity:1;stroke:none;stroke-width:0.79660529;stroke-linecap:round;stroke-linejoin:round;stroke-miterlimit:4;stroke-dasharray:none;stroke-dashoffset:0;stroke-opacity:1" id="rect18649" width="43.747089" height="69.560814" x="10.47088" y="12.280967" ry="1.6121751"/> <g style="display:inline" id="g18983" transform="matrix(1.3451731,0,0,1.3451731,14.415403,-266.48478)"> <rect ry="0.63614869" y="211.00603" x="-1.2695302" height="4.8776689" width="8.7530775" id="rect18926" style="opacity:1;fill:#ffffff;fill-opacity:1;stroke:none;stroke-width:0.39687499;stroke-linecap:round;stroke-linejoin:round;stroke-miterlimit:4;stroke-dasharray:none;stroke-dashoffset:0;stroke-opacity:1"/> <g transform="matrix(0.50391727,0,0,0.50391727,-1.4167987,207.42)" id="g2605-5" style="display:inline;opacity:1"> <g id="g2581-8"> <path inkscape:connector-curvature="0" d="m 11.191,17.811 h -4.03 c -0.221,0 -0.4,0.18 -0.4,0.4 0,0.22 0.179,0.4 0.4,0.4 h 4.031 c 0.221,0 0.4,-0.18 0.4,-0.4 0,-0.22 -0.179,-0.4 -0.401,-0.4 z" id="path2567-6"/> <path inkscape:connector-curvature="0" d="m 22.269,1.95 h -5.68 c -1.117,0 -1.522,0.922 -1.522,1.542 v 2.175 c 0,0.221 0.18,0.4 0.4,0.4 0.22,0 0.4,-0.179 0.4,-0.4 V 3.495 C 15.869,3.32 15.93,2.75 16.589,2.75 h 5.68 c 0.425,0 0.771,0.346 0.771,0.771 V 14.02 H 18.193 V 8.074 c 0,-0.765 -0.623,-1.387 -1.388,-1.387 H 1.547 C 0.782,6.687 0.16,7.309 0.16,8.074 v 10.493 c 0,0.766 0.622,1.389 1.387,1.389 h 3.036 c 0.796,0 1.462,0.554 1.643,1.295 H 5.05 c -0.221,0 -0.4,0.18 -0.4,0.4 0,0.22 0.179,0.4 0.4,0.4 h 8.13 c 0.221,0 0.4,-0.18 0.4,-0.4 0,-0.22 -0.18,-0.4 -0.4,-0.4 h -1.15 c 0.181,-0.741 0.846,-1.295 1.643,-1.295 h 3.132 c 0.765,0 1.388,-0.623 1.388,-1.389 V 14.82 h 4.847 v 5.61 c 0,0.426 -0.346,0.771 -0.771,0.771 h -5.68 c -0.321,0 -0.612,-0.204 -0.725,-0.508 -0.076,-0.206 -0.305,-0.314 -0.514,-0.236 -0.207,0.076 -0.313,0.307 -0.236,0.514 0.228,0.616 0.82,1.031 1.475,1.031 h 5.68 c 0.866,0 1.571,-0.705 1.571,-1.572 V 3.521 C 23.84,2.654 23.135,1.95 22.269,1.95 Z M 1.547,7.486 h 15.257 c 0.324,0 0.587,0.264 0.587,0.587 v 8.373 H 0.96 V 8.074 C 0.96,7.75 1.224,7.486 1.547,7.486 Z M 11.216,21.25 H 7.041 C 6.96,20.755 6.74,20.307 6.413,19.955 h 5.43 c -0.326,0.352 -0.547,0.8 -0.627,1.295 z m 5.589,-2.096 H 13.673 4.583 1.547 C 1.223,19.154 0.96,18.89 0.96,18.566 v -1.319 h 16.432 v 1.319 c 0,0.325 -0.263,0.588 -0.587,0.588 z" id="path2569-2"/> <path inkscape:connector-curvature="0" d="m 20.793,20.586 c 0.221,0 0.4,-0.18 0.4,-0.4 0,-0.22 -0.18,-0.4 -0.4,-0.4 h -1.952 c -0.221,0 -0.4,0.18 -0.4,0.4 0,0.22 0.18,0.4 0.4,0.4 z" id="path2571-8"/> <circle cx="21.448999" cy="9.1040001" r="0.76999998" id="circle2573-4"/> <circle cx="20.299999" cy="10.747" r="0.38" id="circle2575-7"/> <path inkscape:connector-curvature="0" d="m 17.448,4.37 h 4.011 c 0.221,0 0.4,-0.179 0.4,-0.4 0,-0.221 -0.18,-0.4 -0.4,-0.4 h -4.011 c -0.221,0 -0.4,0.179 -0.4,0.4 0,0.221 0.18,0.4 0.4,0.4 z" id="path2577-2"/> <path inkscape:connector-curvature="0" d="m 17.448,5.758 h 4.011 c 0.221,0 0.4,-0.179 0.4,-0.4 0,-0.221 -0.18,-0.4 -0.4,-0.4 h -4.011 c -0.221,0 -0.4,0.179 -0.4,0.4 0,0.221 0.18,0.4 0.4,0.4 z" id="path2579-4"/> </g> </g> </g> <g style="display:inline" id="g9116-0" transform="matrix(0.81486576,0,0,0.81486576,14.272951,-51.504913)"> <rect ry="0.6547479" y="84.11982" x="23.252451" height="10.874835" width="14.4908" id="rect9102-6" style="opacity:1;fill:#ffffff;fill-opacity:1;stroke:none;stroke-width:0.52916664;stroke-linecap:round;stroke-linejoin:round;stroke-miterlimit:4;stroke-dasharray:none;stroke-dashoffset:0;stroke-opacity:1"/> <switch id="switch18-2" transform="matrix(0.1553823,0,0,0.1553823,170.14964,-65.931063)"> <foreignObject height="1" width="1" y="0" x="0" requiredExtensions="http://ns.adobe.com/AdobeIllustrator/10.0/"/> <g id="g16-9" i:extraneous="self"> <g id="g14-9"> <path id="path2-3-0" d="m -899,1026.4 c 11.2,0 20.3,-9.1 20.3,-20.3 0,-11.2 -9.1,-20.3 -20.3,-20.3 -11.2,0 -20.3,9.1 -20.3,20.3 0,11.2 9.1,20.3 20.3,20.3 z m -12.7,-7.8 c 0.1,0 0.1,-0.1 0.2,-0.1 1.4,-0.7 3,-1.3 4.6,-1.8 0.8,2.3 1.9,4.5 3.3,6.4 0.1,0.1 0.1,0.2 0.2,0.3 -3.3,-0.9 -6.1,-2.6 -8.3,-4.8 z m 20,-11.2 v 0 c -0.1,2.2 -0.4,4.4 -1,6.4 -2,-0.4 -4.1,-0.6 -6.3,-0.6 -2.2,0 -4.3,0.2 -6.3,0.6 -0.6,-2 -0.9,-4.2 -1,-6.4 v 0 z m -14.6,-2.5 c 0.1,-2.2 0.4,-4.4 1,-6.4 2,0.4 4.1,0.6 6.3,0.6 2.2,0 4.3,-0.2 6.3,-0.6 0.6,2 0.9,4.2 1,6.4 z m 8.2,19 c -0.3,0 -0.6,0 -0.9,0 -0.3,0 -0.6,0 -0.9,0 -0.1,-0.1 -0.1,-0.1 -0.2,-0.2 -1.8,-2.1 -3.3,-4.7 -4.4,-7.5 1.8,-0.3 3.6,-0.5 5.6,-0.5 2,0 3.8,0.2 5.6,0.5 -1.1,2.9 -2.6,5.4 -4.4,7.5 -0.2,0.1 -0.3,0.1 -0.4,0.2 z m 3.6,-0.5 c 0.1,-0.1 0.1,-0.2 0.2,-0.3 1.3,-1.9 2.4,-4 3.3,-6.4 1.6,0.5 3.1,1 4.6,1.7 0.1,0 0.1,0.1 0.2,0.1 -2.3,2.3 -5.1,4 -8.3,4.9 z m 9.8,-6.7 c -0.1,0 -0.1,-0.1 -0.2,-0.1 -1.7,-0.9 -3.5,-1.6 -5.5,-2.2 0.6,-2.2 1,-4.6 1.1,-7 v 0 h 8 c -0.2,3.4 -1.4,6.6 -3.4,9.3 z m 0,-21.1 c 1.9,2.6 3.2,5.8 3.4,9.3 h -8 c -0.1,-2.4 -0.5,-4.8 -1.1,-7 1.9,-0.6 3.8,-1.3 5.5,-2.2 0.1,0 0.2,-0.1 0.2,-0.1 z m -1.6,-1.9 c -0.1,0 -0.1,0.1 -0.2,0.1 -1.4,0.7 -3,1.3 -4.6,1.7 -0.8,-2.3 -1.9,-4.5 -3.3,-6.4 -0.1,-0.1 -0.1,-0.2 -0.2,-0.3 3.3,0.9 6.1,2.6 8.3,4.9 z m -13.6,-5.3 c 0.3,0 0.6,0 0.9,0 0.3,0 0.6,0 0.9,0 0.1,0.1 0.1,0.1 0.2,0.2 1.8,2.1 3.3,4.7 4.4,7.5 -1.8,0.3 -3.6,0.5 -5.6,0.5 -2,0 -3.8,-0.2 -5.6,-0.5 1.1,-2.9 2.6,-5.4 4.4,-7.5 0.2,-0.1 0.3,-0.2 0.4,-0.2 z m -3.6,0.5 c -0.1,0.1 -0.1,0.2 -0.2,0.3 -1.3,1.9 -2.4,4 -3.3,6.4 -1.6,-0.5 -3.1,-1 -4.6,-1.7 -0.1,0 -0.1,-0.1 -0.2,-0.1 2.3,-2.4 5.1,-4.1 8.3,-4.9 z m -9.8,6.7 c 0.1,0 0.1,0.1 0.2,0.1 1.7,0.9 3.5,1.6 5.5,2.2 -0.6,2.2 -1,4.6 -1.1,7 h -8 c 0.2,-3.5 1.4,-6.7 3.4,-9.3 z m 4.5,11.8 v 0 c 0.1,2.4 0.5,4.8 1.1,7 -1.9,0.6 -3.8,1.3 -5.5,2.2 -0.1,0 -0.1,0.1 -0.2,0.1 -1.9,-2.6 -3.2,-5.8 -3.4,-9.3 z" inkscape:connector-curvature="0"/> <path id="path4-6-8" d="m -855.3,964.1 h -87.3 c -2.9,0 -5.3,2.4 -5.3,5.3 v 63.1 c 0,2.9 2.4,5.3 5.3,5.3 h 87.3 c 2.9,0 5.3,-2.4 5.3,-5.3 v -63.1 c 0,-2.9 -2.4,-5.3 -5.3,-5.3 z m 2.5,68.5 c 0,1.4 -1.1,2.5 -2.5,2.5 h -87.3 c -1.4,0 -2.5,-1.1 -2.5,-2.5 v -54.7 h 92.4 v 54.7 z m 0,-57.5 h -92.4 v -5.7 c 0,-1.4 1.1,-2.5 2.5,-2.5 h 87.3 c 1.4,0 2.5,1.1 2.5,2.5 v 5.7 z" inkscape:connector-curvature="0"/> <path id="path6-1" d="m -881.4,969.6 h -35.3 c -0.8,0 -1.4,0.6 -1.4,1.4 0,0.8 0.6,1.4 1.4,1.4 h 35.3 c 0.8,0 1.4,-0.6 1.4,-1.4 0,-0.8 -0.6,-1.4 -1.4,-1.4 z" inkscape:connector-curvature="0"/> <circle id="circle8-3" r="1.4" cy="971" cx="-941.20001"/> <circle id="circle10-1" r="1.4" cy="971" cx="-936.59998"/> <circle id="circle12-1" r="1.4" cy="971" cx="-931.90002"/> </g> </g> </switch> </g> <g id="g4611" transform="matrix(2.0071944,0,0,2.0071944,-241.00921,-41.255054)"> <path sodipodi:nodetypes="ccccccc" inkscape:connector-curvature="0" id="path22554" d="m 162.00068,28.298129 -0.37912,1.354366 c 0,0 -0.0621,3.966157 0.004,4.272349 -0.1006,0.03354 5.42698,0.02584 5.42698,0.02584 l 0.0437,-4.410817 -0.37582,-1.223606 z" style="fill:#ffffff;stroke:none;stroke-width:0.1327741px;stroke-linecap:butt;stroke-linejoin:miter;stroke-opacity:1"/> <g transform="matrix(0.11851128,0,0,0.0907352,160.59649,28.21653)" id="g9793-2-3" style="display:inline;opacity:1"> <path inkscape:connector-curvature="0" class="Graphic_x0020_Style_x0020_2" d="m 56,17 c 0,-2.1 -0.2,-4.1 -0.7,-6.1 l -2,-8.5 C 53,1 51.8,0 50.4,0 H 13.6 C 12.2,0 11,1 10.7,2.3 l -2,8.5 C 8.2,12.9 8,14.9 8,17 v 44 c 0,1.7 1.3,3 3,3 h 42 c 1.7,0 3,-1.3 3,-3 V 17 c 0,0 0,0 0,0 0,0 0,0 0,0 z M 12.6,2.8 C 12.7,2.3 13.1,2 13.6,2 h 36.8 c 0.5,0 0.9,0.3 1,0.8 l 2,8.5 c 0.2,0.9 0.4,1.9 0.5,2.8 C 53.6,14.1 53.3,14 53,14 H 11 c -0.3,0 -0.6,0.1 -0.8,0.1 0.1,-1 0.3,-1.9 0.5,-2.8 z M 53,62 H 11 c -0.6,0 -1,-0.4 -1,-1 V 40 h 11 c 0.6,0 1,-0.4 1,-1 0,-0.6 -0.4,-1 -1,-1 H 10 V 28 h 8 c 0.6,0 1,-0.4 1,-1 0,-0.6 -0.4,-1 -1,-1 h -8 v -9 c 0,-0.6 0.4,-1 1,-1 h 42 c 0.6,0 1,0.4 1,1 v 9 H 27 c -0.6,0 -1,0.4 -1,1 0,0.6 0.4,1 1,1 H 54 V 38 H 27 c -0.6,0 -1,0.4 -1,1 0,0.6 0.4,1 1,1 H 54 V 50 H 13 c -0.6,0 -1,0.4 -1,1 0,0.6 0.4,1 1,1 h 41 v 9 c 0,0.6 -0.4,1 -1,1 z M 48,23 v -4 c 0,-0.6 0.4,-1 1,-1 0.6,0 1,0.4 1,1 v 4 c 0,0.6 -0.4,1 -1,1 -0.6,0 -1,-0.4 -1,-1 z m -4,0 v -4 c 0,-0.6 0.4,-1 1,-1 0.6,0 1,0.4 1,1 v 4 c 0,0.6 -0.4,1 -1,1 -0.6,0 -1,-0.4 -1,-1 z m -4,0 v -4 c 0,-0.6 0.4,-1 1,-1 0.6,0 1,0.4 1,1 v 4 c 0,0.6 -0.4,1 -1,1 -0.6,0 -1,-0.4 -1,-1 z m -4,0 v -4 c 0,-0.6 0.4,-1 1,-1 0.6,0 1,0.4 1,1 v 4 c 0,0.6 -0.4,1 -1,1 -0.6,0 -1,-0.4 -1,-1 z m -4,0 v -4 c 0,-0.6 0.4,-1 1,-1 0.6,0 1,0.4 1,1 v 4 c 0,0.6 -0.4,1 -1,1 -0.6,0 -1,-0.4 -1,-1 z m 16,12 v -4 c 0,-0.6 0.4,-1 1,-1 0.6,0 1,0.4 1,1 v 4 c 0,0.6 -0.4,1 -1,1 -0.6,0 -1,-0.4 -1,-1 z m -4,0 v -4 c 0,-0.6 0.4,-1 1,-1 0.6,0 1,0.4 1,1 v 4 c 0,0.6 -0.4,1 -1,1 -0.6,0 -1,-0.4 -1,-1 z m -4,0 v -4 c 0,-0.6 0.4,-1 1,-1 0.6,0 1,0.4 1,1 v 4 c 0,0.6 -0.4,1 -1,1 -0.6,0 -1,-0.4 -1,-1 z m -4,0 v -4 c 0,-0.6 0.4,-1 1,-1 0.6,0 1,0.4 1,1 v 4 c 0,0.6 -0.4,1 -1,1 -0.6,0 -1,-0.4 -1,-1 z m -4,0 v -4 c 0,-0.6 0.4,-1 1,-1 0.6,0 1,0.4 1,1 v 4 c 0,0.6 -0.4,1 -1,1 -0.6,0 -1,-0.4 -1,-1 z m 16,12 v -4 c 0,-0.6 0.4,-1 1,-1 0.6,0 1,0.4 1,1 v 4 c 0,0.6 -0.4,1 -1,1 -0.6,0 -1,-0.4 -1,-1 z m -4,0 v -4 c 0,-0.6 0.4,-1 1,-1 0.6,0 1,0.4 1,1 v 4 c 0,0.6 -0.4,1 -1,1 -0.6,0 -1,-0.4 -1,-1 z m -4,0 v -4 c 0,-0.6 0.4,-1 1,-1 0.6,0 1,0.4 1,1 v 4 c 0,0.6 -0.4,1 -1,1 -0.6,0 -1,-0.4 -1,-1 z m -4,0 v -4 c 0,-0.6 0.4,-1 1,-1 0.6,0 1,0.4 1,1 v 4 c 0,0.6 -0.4,1 -1,1 -0.6,0 -1,-0.4 -1,-1 z m -4,0 v -4 c 0,-0.6 0.4,-1 1,-1 0.6,0 1,0.4 1,1 v 4 c 0,0.6 -0.4,1 -1,1 -0.6,0 -1,-0.4 -1,-1 z m 18,8 v 4 c 0,0.6 -0.4,1 -1,1 -0.6,0 -1,-0.4 -1,-1 v -4 c 0,-0.6 0.4,-1 1,-1 0.6,0 1,0.4 1,1 z m -4,0 v 4 c 0,0.6 -0.4,1 -1,1 -0.6,0 -1,-0.4 -1,-1 v -4 c 0,-0.6 0.4,-1 1,-1 0.6,0 1,0.4 1,1 z m -4,0 v 4 c 0,0.6 -0.4,1 -1,1 -0.6,0 -1,-0.4 -1,-1 v -4 c 0,-0.6 0.4,-1 1,-1 0.6,0 1,0.4 1,1 z m -4,0 v 4 c 0,0.6 -0.4,1 -1,1 -0.6,0 -1,-0.4 -1,-1 v -4 c 0,-0.6 0.4,-1 1,-1 0.6,0 1,0.4 1,1 z m -4,0 v 4 c 0,0.6 -0.4,1 -1,1 -0.6,0 -1,-0.4 -1,-1 v -4 c 0,-0.6 0.4,-1 1,-1 0.6,0 1,0.4 1,1 z M 37,5 c 0,-0.6 0.4,-1 1,-1 h 11 c 0.6,0 1,0.4 1,1 0,0.6 -0.4,1 -1,1 H 38 C 37.4,6 37,5.6 37,5 Z m 0,3 c 0,-0.6 0.4,-1 1,-1 h 11 c 0.6,0 1,0.4 1,1 0,0.6 -0.4,1 -1,1 H 38 C 37.4,9 37,8.6 37,8 Z M 21,21.5 C 21,22.3 20.3,23 19.5,23 18.7,23 18,22.3 18,21.5 18,20.7 18.7,20 19.5,20 c 0.8,0 1.5,0.7 1.5,1.5 z m 1,0 C 22,20.7 22.7,20 23.5,20 24.3,20 25,20.7 25,21.5 25,22.3 24.3,23 23.5,23 22.7,23 22,22.3 22,21.5 Z m -5,12 C 17,34.3 16.3,35 15.5,35 14.7,35 14,34.3 14,33.5 14,32.7 14.7,32 15.5,32 c 0.8,0 1.5,0.7 1.5,1.5 z m 4,0 C 21,34.3 20.3,35 19.5,35 18.7,35 18,34.3 18,33.5 18,32.7 18.7,32 19.5,32 c 0.8,0 1.5,0.7 1.5,1.5 z m 1,0 C 22,32.7 22.7,32 23.5,32 24.3,32 25,32.7 25,33.5 25,34.3 24.3,35 23.5,35 22.7,35 22,34.3 22,33.5 Z m -8,12 C 14,44.7 14.7,44 15.5,44 16.3,44 17,44.7 17,45.5 17,46.3 16.3,47 15.5,47 14.7,47 14,46.3 14,45.5 Z m 4,0 C 18,44.7 18.7,44 19.5,44 20.3,44 21,44.7 21,45.5 21,46.3 20.3,47 19.5,47 18.7,47 18,46.3 18,45.5 Z m 4,0 C 22,44.7 22.7,44 23.5,44 24.3,44 25,44.7 25,45.5 25,46.3 24.3,47 23.5,47 22.7,47 22,46.3 22,45.5 Z m -5,12 C 17,58.3 16.3,59 15.5,59 14.7,59 14,58.3 14,57.5 14,56.7 14.7,56 15.5,56 c 0.8,0 1.5,0.7 1.5,1.5 z m 4,0 C 21,58.3 20.3,59 19.5,59 18.7,59 18,58.3 18,57.5 18,56.7 18.7,56 19.5,56 c 0.8,0 1.5,0.7 1.5,1.5 z m 4,0 C 25,58.3 24.3,59 23.5,59 22.7,59 22,58.3 22,57.5 22,56.7 22.7,56 23.5,56 c 0.8,0 1.5,0.7 1.5,1.5 z m -8,-36 C 17,22.3 16.3,23 15.5,23 14.7,23 14,22.3 14,21.5 14,20.7 14.7,20 15.5,20 c 0.8,0 1.5,0.7 1.5,1.5 z" id="path9776-54-6"/> </g> </g> <path style="fill:none;stroke:#3465a4;stroke-width:0.53107017px;stroke-linecap:butt;stroke-linejoin:miter;stroke-opacity:1" d="m 30.319812,31.390107 v 47.79632" id="path4655" inkscape:connector-curvature="0"/> <g style="display:inline" id="g19017" transform="matrix(0.7240362,0,0,0.7240362,40.601605,-132.05796)"> <rect ry="0.80319828" y="225.32626" x="-6.7090759" height="8.1737518" width="36.360813" id="rect18625" style="display:inline;opacity:1;fill:#ffffff;fill-opacity:1;stroke:#729fcf;stroke-width:0.39687499;stroke-linecap:round;stroke-linejoin:round;stroke-miterlimit:4;stroke-dasharray:none;stroke-dashoffset:0;stroke-opacity:1"/> <text id="text18629" y="228.52922" x="-5.1948071" style="font-style:normal;font-variant:normal;font-weight:normal;font-stretch:normal;font-size:2.82222223px;line-height:1.25;font-family:Inconsolata;-inkscape-font-specification:'Inconsolata, Normal';font-variant-ligatures:normal;font-variant-caps:normal;font-variant-numeric:normal;font-feature-settings:normal;text-align:start;letter-spacing:0px;word-spacing:0px;writing-mode:lr-tb;text-anchor:start;display:inline;fill:#729fcf;fill-opacity:1;stroke:none;stroke-width:0.26458332" xml:space="preserve"><tspan style="font-style:normal;font-variant:normal;font-weight:normal;font-stretch:normal;font-size:2.82222223px;font-family:Inconsolata;-inkscape-font-specification:'Inconsolata, Normal';font-variant-ligatures:normal;font-variant-caps:normal;font-variant-numeric:normal;font-feature-settings:normal;text-align:start;writing-mode:lr-tb;text-anchor:start;fill:#729fcf;stroke-width:0.26458332" y="228.52922" x="-5.1948071" id="tspan18627" sodipodi:role="line">GET / /HTTP/1.1</tspan></text> <text id="text18629-0" y="231.52878" x="-5.5580883" style="font-style:normal;font-variant:normal;font-weight:normal;font-stretch:normal;font-size:2.82222223px;line-height:1.25;font-family:Inconsolata;-inkscape-font-specification:'Inconsolata, Normal';font-variant-ligatures:normal;font-variant-caps:normal;font-variant-numeric:normal;font-feature-settings:normal;text-align:start;letter-spacing:0px;word-spacing:0px;writing-mode:lr-tb;text-anchor:start;display:inline;fill:#729fcf;fill-opacity:1;stroke:none;stroke-width:0.26458332" xml:space="preserve"><tspan style="font-style:normal;font-variant:normal;font-weight:normal;font-stretch:normal;font-size:2.82222223px;font-family:Inconsolata;-inkscape-font-specification:'Inconsolata, Normal';font-variant-ligatures:normal;font-variant-caps:normal;font-variant-numeric:normal;font-feature-settings:normal;text-align:start;writing-mode:lr-tb;text-anchor:start;fill:#729fcf;stroke-width:0.26458332" y="231.52878" x="-5.5580883" id="tspan18627-3" sodipodi:role="line">Host: fr.wikipedia.org</tspan></text> </g> <path style="fill:none;stroke:#f57900;stroke-width:0.53107017px;stroke-linecap:butt;stroke-linejoin:miter;stroke-opacity:1" d="m 88.73754,31.390107 v 47.79632" id="path4655-0" inkscape:connector-curvature="0"/> <g style="display:inline" id="g19017-6" transform="matrix(0.7240362,0,0,0.7240362,61.609719,-116.75634)"> <rect ry="0.80319828" y="225.32626" x="-6.7090759" height="17.250174" width="37.009129" id="rect18625-2" style="display:inline;opacity:1;fill:#ffffff;fill-opacity:1;stroke:#f57900;stroke-width:0.39687499;stroke-linecap:round;stroke-linejoin:round;stroke-miterlimit:4;stroke-dasharray:none;stroke-dashoffset:0;stroke-opacity:1"/> <text id="text18629-9" y="228.52922" x="-5.1948071" style="font-style:normal;font-variant:normal;font-weight:normal;font-stretch:normal;font-size:2.82222223px;line-height:1.25;font-family:Inconsolata;-inkscape-font-specification:'Inconsolata, Normal';font-variant-ligatures:normal;font-variant-caps:normal;font-variant-numeric:normal;font-feature-settings:normal;text-align:start;letter-spacing:0px;word-spacing:0px;writing-mode:lr-tb;text-anchor:start;display:inline;fill:#729fcf;fill-opacity:1;stroke:none;stroke-width:0.26458332" xml:space="preserve"><tspan style="font-style:normal;font-variant:normal;font-weight:normal;font-stretch:normal;font-size:2.82222223px;font-family:Inconsolata;-inkscape-font-specification:'Inconsolata, Normal';font-variant-ligatures:normal;font-variant-caps:normal;font-variant-numeric:normal;font-feature-settings:normal;text-align:start;writing-mode:lr-tb;text-anchor:start;fill:#ce5c00;stroke-width:0.26458332" y="228.52922" x="-5.1948071" id="tspan18627-1" sodipodi:role="line">HTTP /1.1 200 OK</tspan></text> <text id="text18629-0-2" y="231.52878" x="-5.5580883" style="font-style:normal;font-variant:normal;font-weight:normal;font-stretch:normal;font-size:2.82222223px;line-height:1.25;font-family:Inconsolata;-inkscape-font-specification:'Inconsolata, Normal';font-variant-ligatures:normal;font-variant-caps:normal;font-variant-numeric:normal;font-feature-settings:normal;text-align:start;letter-spacing:0px;word-spacing:0px;writing-mode:lr-tb;text-anchor:start;display:inline;fill:#729fcf;fill-opacity:1;stroke:none;stroke-width:0.26458332" xml:space="preserve"><tspan style="font-style:normal;font-variant:normal;font-weight:normal;font-stretch:normal;font-size:2.82222223px;font-family:Inconsolata;-inkscape-font-specification:'Inconsolata, Normal';font-variant-ligatures:normal;font-variant-caps:normal;font-variant-numeric:normal;font-feature-settings:normal;text-align:start;writing-mode:lr-tb;text-anchor:start;fill:#ce5c00;stroke-width:0.26458332" y="231.52878" x="-5.5580883" id="tspan18627-3-7" sodipodi:role="line">&lt;html&gt; </tspan><tspan style="font-style:normal;font-variant:normal;font-weight:normal;font-stretch:normal;font-size:2.82222223px;font-family:Inconsolata;-inkscape-font-specification:'Inconsolata, Normal';font-variant-ligatures:normal;font-variant-caps:normal;font-variant-numeric:normal;font-feature-settings:normal;text-align:start;writing-mode:lr-tb;text-anchor:start;fill:#ce5c00;stroke-width:0.26458332" y="235.05655" x="-5.5580883" sodipodi:role="line" id="tspan4645">...</tspan><tspan style="font-style:normal;font-variant:normal;font-weight:normal;font-stretch:normal;font-size:2.82222223px;font-family:Inconsolata;-inkscape-font-specification:'Inconsolata, Normal';font-variant-ligatures:normal;font-variant-caps:normal;font-variant-numeric:normal;font-feature-settings:normal;text-align:start;writing-mode:lr-tb;text-anchor:start;fill:#ce5c00;stroke-width:0.26458332" y="238.58434" x="-5.5580883" sodipodi:role="line" id="tspan4647">&lt;/html&gt;</tspan><tspan style="font-style:normal;font-variant:normal;font-weight:normal;font-stretch:normal;font-size:2.82222223px;font-family:Inconsolata;-inkscape-font-specification:'Inconsolata, Normal';font-variant-ligatures:normal;font-variant-caps:normal;font-variant-numeric:normal;font-feature-settings:normal;text-align:start;writing-mode:lr-tb;text-anchor:start;fill:#ce5c00;stroke-width:0.26458332" y="242.11211" x="-5.5580883" sodipodi:role="line" id="tspan4643"/></text> </g> <path style="fill:#3465a4;stroke:#3465a4;stroke-width:0.63728428;stroke-linecap:butt;stroke-linejoin:miter;stroke-miterlimit:4;stroke-dasharray:none;stroke-opacity:1;marker-end:url(#Arrow2Mend)" d="M 31.381961,38.825091 H 80.771487" id="path4741" inkscape:connector-curvature="0" sodipodi:nodetypes="cc"/> <rect style="opacity:1;fill:#f57900;fill-opacity:1;stroke:none;stroke-width:0.53190649;stroke-linecap:round;stroke-linejoin:round;stroke-miterlimit:4;stroke-dasharray:none;stroke-dashoffset:0;stroke-opacity:1;paint-order:normal" id="rect4743-9" width="2.1242561" height="10.621404" x="87.675423" y="35.638672" ry="0.53107017"/> <path style="fill:#f57900;stroke:#f57900;stroke-width:0.63728434;stroke-linecap:butt;stroke-linejoin:miter;stroke-miterlimit:4;stroke-dasharray:none;stroke-opacity:1;marker-end:url(#Arrow2Mend-3)" d="M 83.426826,44.666863 H 34.037298" id="path4741-0" inkscape:connector-curvature="0" sodipodi:nodetypes="cc"/> <path style="fill:#3465a4;stroke:#3465a4;stroke-width:0.63728434;stroke-linecap:butt;stroke-linejoin:miter;stroke-miterlimit:4;stroke-dasharray:none;stroke-opacity:1;marker-end:url(#Arrow2Mend-6)" d="M 32.975171,71.220374 H 82.364697" id="path4741-6" inkscape:connector-curvature="0" sodipodi:nodetypes="cc"/> <path style="fill:#f57900;stroke:#f57900;stroke-width:0.63728434;stroke-linecap:butt;stroke-linejoin:miter;stroke-miterlimit:4;stroke-dasharray:none;stroke-opacity:1;marker-end:url(#Arrow2Mend-3-1)" d="M 82.364697,76.531075 H 32.975171" id="path4741-0-7" inkscape:connector-curvature="0" sodipodi:nodetypes="cc"/> <g style="display:inline" id="g19017-9" transform="matrix(0.7240362,0,0,0.7240362,38.268518,-104.32863)"> <g id="g6405" transform="translate(-1.9120781,2.043438)"> <rect style="display:inline;opacity:1;fill:#ffffff;fill-opacity:1;stroke:#729fcf;stroke-width:0.39687499;stroke-linecap:round;stroke-linejoin:round;stroke-miterlimit:4;stroke-dasharray:none;stroke-dashoffset:0;stroke-opacity:1" id="rect18625-20" width="98.863838" height="11.421733" x="-6.7090759" y="225.32626" ry="0.80319828"/> <text xml:space="preserve" style="font-style:normal;font-variant:normal;font-weight:normal;font-stretch:normal;font-size:2.82222223px;line-height:1.25;font-family:Inconsolata;-inkscape-font-specification:'Inconsolata, Normal';font-variant-ligatures:normal;font-variant-caps:normal;font-variant-numeric:normal;font-feature-settings:normal;text-align:start;letter-spacing:0px;word-spacing:0px;writing-mode:lr-tb;text-anchor:start;display:inline;fill:#729fcf;fill-opacity:1;stroke:none;stroke-width:0.26458332" x="-5.1948071" y="228.52922" id="text18629-2"><tspan sodipodi:role="line" id="tspan18627-37" x="-5.1948071" y="228.52922" style="font-style:normal;font-variant:normal;font-weight:normal;font-stretch:normal;font-size:2.82222223px;font-family:Inconsolata;-inkscape-font-specification:'Inconsolata, Normal';font-variant-ligatures:normal;font-variant-caps:normal;font-variant-numeric:normal;font-feature-settings:normal;text-align:start;writing-mode:lr-tb;text-anchor:start;fill:#729fcf;stroke-width:0.26458332">GET / /HTTP/1.1</tspan></text> <text xml:space="preserve" style="font-style:normal;font-variant:normal;font-weight:normal;font-stretch:normal;font-size:2.82222223px;line-height:1.25;font-family:Inconsolata;-inkscape-font-specification:'Inconsolata, Normal';font-variant-ligatures:normal;font-variant-caps:normal;font-variant-numeric:normal;font-feature-settings:normal;text-align:start;letter-spacing:0px;word-spacing:0px;writing-mode:lr-tb;text-anchor:start;display:inline;fill:#729fcf;fill-opacity:1;stroke:none;stroke-width:0.26458332" x="-5.5580883" y="231.52878" id="text18629-0-5"><tspan sodipodi:role="line" id="tspan18627-3-9" x="-5.5580883" y="231.52878" style="font-style:normal;font-variant:normal;font-weight:normal;font-stretch:normal;font-size:2.82222223px;font-family:Inconsolata;-inkscape-font-specification:'Inconsolata, Normal';font-variant-ligatures:normal;font-variant-caps:normal;font-variant-numeric:normal;font-feature-settings:normal;text-align:start;writing-mode:lr-tb;text-anchor:start;fill:#729fcf;stroke-width:0.26458332">Host: fr.wikipedia.org</tspan><tspan id="tspan6397" sodipodi:role="line" x="-5.5580883" y="235.05655" style="font-style:normal;font-variant:normal;font-weight:normal;font-stretch:normal;font-size:2.82222223px;font-family:Inconsolata;-inkscape-font-specification:'Inconsolata, Normal';font-variant-ligatures:normal;font-variant-caps:normal;font-variant-numeric:normal;font-feature-settings:normal;text-align:start;writing-mode:lr-tb;text-anchor:start;fill:#729fcf;stroke-width:0.26458332">request URL : http://wikipedia.fr/Resultats.php?q=web&amp;projet=article</tspan></text> </g> </g> <g style="display:inline" id="g19017-6-2" transform="matrix(0.7240362,0,0,0.7240362,61.609719,-84.892128)"> <rect ry="0.80319828" y="225.32626" x="-6.7090759" height="17.250174" width="37.009129" id="rect18625-2-2" style="display:inline;opacity:1;fill:#ffffff;fill-opacity:1;stroke:#f57900;stroke-width:0.39687499;stroke-linecap:round;stroke-linejoin:round;stroke-miterlimit:4;stroke-dasharray:none;stroke-dashoffset:0;stroke-opacity:1"/> <text id="text18629-9-8" y="228.52922" x="-5.1948071" style="font-style:normal;font-variant:normal;font-weight:normal;font-stretch:normal;font-size:2.82222223px;line-height:1.25;font-family:Inconsolata;-inkscape-font-specification:'Inconsolata, Normal';font-variant-ligatures:normal;font-variant-caps:normal;font-variant-numeric:normal;font-feature-settings:normal;text-align:start;letter-spacing:0px;word-spacing:0px;writing-mode:lr-tb;text-anchor:start;display:inline;fill:#729fcf;fill-opacity:1;stroke:none;stroke-width:0.26458332" xml:space="preserve"><tspan style="font-style:normal;font-variant:normal;font-weight:normal;font-stretch:normal;font-size:2.82222223px;font-family:Inconsolata;-inkscape-font-specification:'Inconsolata, Normal';font-variant-ligatures:normal;font-variant-caps:normal;font-variant-numeric:normal;font-feature-settings:normal;text-align:start;writing-mode:lr-tb;text-anchor:start;fill:#ce5c00;stroke-width:0.26458332" y="228.52922" x="-5.1948071" id="tspan18627-1-9" sodipodi:role="line">HTTP /1.1 200 OK</tspan></text> <text id="text18629-0-2-7" y="231.52878" x="-5.5580883" style="font-style:normal;font-variant:normal;font-weight:normal;font-stretch:normal;font-size:2.82222223px;line-height:1.25;font-family:Inconsolata;-inkscape-font-specification:'Inconsolata, Normal';font-variant-ligatures:normal;font-variant-caps:normal;font-variant-numeric:normal;font-feature-settings:normal;text-align:start;letter-spacing:0px;word-spacing:0px;writing-mode:lr-tb;text-anchor:start;display:inline;fill:#729fcf;fill-opacity:1;stroke:none;stroke-width:0.26458332" xml:space="preserve"><tspan style="font-style:normal;font-variant:normal;font-weight:normal;font-stretch:normal;font-size:2.82222223px;font-family:Inconsolata;-inkscape-font-specification:'Inconsolata, Normal';font-variant-ligatures:normal;font-variant-caps:normal;font-variant-numeric:normal;font-feature-settings:normal;text-align:start;writing-mode:lr-tb;text-anchor:start;fill:#ce5c00;stroke-width:0.26458332" y="231.52878" x="-5.5580883" id="tspan18627-3-7-3" sodipodi:role="line">&lt;html&gt; </tspan><tspan style="font-style:normal;font-variant:normal;font-weight:normal;font-stretch:normal;font-size:2.82222223px;font-family:Inconsolata;-inkscape-font-specification:'Inconsolata, Normal';font-variant-ligatures:normal;font-variant-caps:normal;font-variant-numeric:normal;font-feature-settings:normal;text-align:start;writing-mode:lr-tb;text-anchor:start;fill:#ce5c00;stroke-width:0.26458332" y="235.05655" x="-5.5580883" sodipodi:role="line" id="tspan4645-6">...</tspan><tspan style="font-style:normal;font-variant:normal;font-weight:normal;font-stretch:normal;font-size:2.82222223px;font-family:Inconsolata;-inkscape-font-specification:'Inconsolata, Normal';font-variant-ligatures:normal;font-variant-caps:normal;font-variant-numeric:normal;font-feature-settings:normal;text-align:start;writing-mode:lr-tb;text-anchor:start;fill:#ce5c00;stroke-width:0.26458332" y="238.58434" x="-5.5580883" sodipodi:role="line" id="tspan4647-1">&lt;/html&gt;</tspan><tspan style="font-style:normal;font-variant:normal;font-weight:normal;font-stretch:normal;font-size:2.82222223px;font-family:Inconsolata;-inkscape-font-specification:'Inconsolata, Normal';font-variant-ligatures:normal;font-variant-caps:normal;font-variant-numeric:normal;font-feature-settings:normal;text-align:start;writing-mode:lr-tb;text-anchor:start;fill:#ce5c00;stroke-width:0.26458332" y="242.11211" x="-5.5580883" sodipodi:role="line" id="tspan4643-2"/></text> </g> <g id="g4611-1" transform="matrix(2.0071944,0,0,2.0071944,-211.93656,-41.559074)"> <path sodipodi:nodetypes="ccccccc" inkscape:connector-curvature="0" id="path22554-9" d="m 162.00068,28.298129 -0.37912,1.354366 c 0,0 -0.0621,3.966157 0.004,4.272349 -0.1006,0.03354 5.42698,0.02584 5.42698,0.02584 l 0.0437,-4.410817 -0.37582,-1.223606 z" style="fill:#ffffff;stroke:none;stroke-width:0.1327741px;stroke-linecap:butt;stroke-linejoin:miter;stroke-opacity:1"/> <g transform="matrix(0.11851128,0,0,0.0907352,160.59649,28.21653)" id="g9793-2-3-4" style="display:inline;opacity:1"> <path inkscape:connector-curvature="0" class="Graphic_x0020_Style_x0020_2" d="m 56,17 c 0,-2.1 -0.2,-4.1 -0.7,-6.1 l -2,-8.5 C 53,1 51.8,0 50.4,0 H 13.6 C 12.2,0 11,1 10.7,2.3 l -2,8.5 C 8.2,12.9 8,14.9 8,17 v 44 c 0,1.7 1.3,3 3,3 h 42 c 1.7,0 3,-1.3 3,-3 V 17 c 0,0 0,0 0,0 0,0 0,0 0,0 z M 12.6,2.8 C 12.7,2.3 13.1,2 13.6,2 h 36.8 c 0.5,0 0.9,0.3 1,0.8 l 2,8.5 c 0.2,0.9 0.4,1.9 0.5,2.8 C 53.6,14.1 53.3,14 53,14 H 11 c -0.3,0 -0.6,0.1 -0.8,0.1 0.1,-1 0.3,-1.9 0.5,-2.8 z M 53,62 H 11 c -0.6,0 -1,-0.4 -1,-1 V 40 h 11 c 0.6,0 1,-0.4 1,-1 0,-0.6 -0.4,-1 -1,-1 H 10 V 28 h 8 c 0.6,0 1,-0.4 1,-1 0,-0.6 -0.4,-1 -1,-1 h -8 v -9 c 0,-0.6 0.4,-1 1,-1 h 42 c 0.6,0 1,0.4 1,1 v 9 H 27 c -0.6,0 -1,0.4 -1,1 0,0.6 0.4,1 1,1 H 54 V 38 H 27 c -0.6,0 -1,0.4 -1,1 0,0.6 0.4,1 1,1 H 54 V 50 H 13 c -0.6,0 -1,0.4 -1,1 0,0.6 0.4,1 1,1 h 41 v 9 c 0,0.6 -0.4,1 -1,1 z M 48,23 v -4 c 0,-0.6 0.4,-1 1,-1 0.6,0 1,0.4 1,1 v 4 c 0,0.6 -0.4,1 -1,1 -0.6,0 -1,-0.4 -1,-1 z m -4,0 v -4 c 0,-0.6 0.4,-1 1,-1 0.6,0 1,0.4 1,1 v 4 c 0,0.6 -0.4,1 -1,1 -0.6,0 -1,-0.4 -1,-1 z m -4,0 v -4 c 0,-0.6 0.4,-1 1,-1 0.6,0 1,0.4 1,1 v 4 c 0,0.6 -0.4,1 -1,1 -0.6,0 -1,-0.4 -1,-1 z m -4,0 v -4 c 0,-0.6 0.4,-1 1,-1 0.6,0 1,0.4 1,1 v 4 c 0,0.6 -0.4,1 -1,1 -0.6,0 -1,-0.4 -1,-1 z m -4,0 v -4 c 0,-0.6 0.4,-1 1,-1 0.6,0 1,0.4 1,1 v 4 c 0,0.6 -0.4,1 -1,1 -0.6,0 -1,-0.4 -1,-1 z m 16,12 v -4 c 0,-0.6 0.4,-1 1,-1 0.6,0 1,0.4 1,1 v 4 c 0,0.6 -0.4,1 -1,1 -0.6,0 -1,-0.4 -1,-1 z m -4,0 v -4 c 0,-0.6 0.4,-1 1,-1 0.6,0 1,0.4 1,1 v 4 c 0,0.6 -0.4,1 -1,1 -0.6,0 -1,-0.4 -1,-1 z m -4,0 v -4 c 0,-0.6 0.4,-1 1,-1 0.6,0 1,0.4 1,1 v 4 c 0,0.6 -0.4,1 -1,1 -0.6,0 -1,-0.4 -1,-1 z m -4,0 v -4 c 0,-0.6 0.4,-1 1,-1 0.6,0 1,0.4 1,1 v 4 c 0,0.6 -0.4,1 -1,1 -0.6,0 -1,-0.4 -1,-1 z m -4,0 v -4 c 0,-0.6 0.4,-1 1,-1 0.6,0 1,0.4 1,1 v 4 c 0,0.6 -0.4,1 -1,1 -0.6,0 -1,-0.4 -1,-1 z m 16,12 v -4 c 0,-0.6 0.4,-1 1,-1 0.6,0 1,0.4 1,1 v 4 c 0,0.6 -0.4,1 -1,1 -0.6,0 -1,-0.4 -1,-1 z m -4,0 v -4 c 0,-0.6 0.4,-1 1,-1 0.6,0 1,0.4 1,1 v 4 c 0,0.6 -0.4,1 -1,1 -0.6,0 -1,-0.4 -1,-1 z m -4,0 v -4 c 0,-0.6 0.4,-1 1,-1 0.6,0 1,0.4 1,1 v 4 c 0,0.6 -0.4,1 -1,1 -0.6,0 -1,-0.4 -1,-1 z m -4,0 v -4 c 0,-0.6 0.4,-1 1,-1 0.6,0 1,0.4 1,1 v 4 c 0,0.6 -0.4,1 -1,1 -0.6,0 -1,-0.4 -1,-1 z m -4,0 v -4 c 0,-0.6 0.4,-1 1,-1 0.6,0 1,0.4 1,1 v 4 c 0,0.6 -0.4,1 -1,1 -0.6,0 -1,-0.4 -1,-1 z m 18,8 v 4 c 0,0.6 -0.4,1 -1,1 -0.6,0 -1,-0.4 -1,-1 v -4 c 0,-0.6 0.4,-1 1,-1 0.6,0 1,0.4 1,1 z m -4,0 v 4 c 0,0.6 -0.4,1 -1,1 -0.6,0 -1,-0.4 -1,-1 v -4 c 0,-0.6 0.4,-1 1,-1 0.6,0 1,0.4 1,1 z m -4,0 v 4 c 0,0.6 -0.4,1 -1,1 -0.6,0 -1,-0.4 -1,-1 v -4 c 0,-0.6 0.4,-1 1,-1 0.6,0 1,0.4 1,1 z m -4,0 v 4 c 0,0.6 -0.4,1 -1,1 -0.6,0 -1,-0.4 -1,-1 v -4 c 0,-0.6 0.4,-1 1,-1 0.6,0 1,0.4 1,1 z m -4,0 v 4 c 0,0.6 -0.4,1 -1,1 -0.6,0 -1,-0.4 -1,-1 v -4 c 0,-0.6 0.4,-1 1,-1 0.6,0 1,0.4 1,1 z M 37,5 c 0,-0.6 0.4,-1 1,-1 h 11 c 0.6,0 1,0.4 1,1 0,0.6 -0.4,1 -1,1 H 38 C 37.4,6 37,5.6 37,5 Z m 0,3 c 0,-0.6 0.4,-1 1,-1 h 11 c 0.6,0 1,0.4 1,1 0,0.6 -0.4,1 -1,1 H 38 C 37.4,9 37,8.6 37,8 Z M 21,21.5 C 21,22.3 20.3,23 19.5,23 18.7,23 18,22.3 18,21.5 18,20.7 18.7,20 19.5,20 c 0.8,0 1.5,0.7 1.5,1.5 z m 1,0 C 22,20.7 22.7,20 23.5,20 24.3,20 25,20.7 25,21.5 25,22.3 24.3,23 23.5,23 22.7,23 22,22.3 22,21.5 Z m -5,12 C 17,34.3 16.3,35 15.5,35 14.7,35 14,34.3 14,33.5 14,32.7 14.7,32 15.5,32 c 0.8,0 1.5,0.7 1.5,1.5 z m 4,0 C 21,34.3 20.3,35 19.5,35 18.7,35 18,34.3 18,33.5 18,32.7 18.7,32 19.5,32 c 0.8,0 1.5,0.7 1.5,1.5 z m 1,0 C 22,32.7 22.7,32 23.5,32 24.3,32 25,32.7 25,33.5 25,34.3 24.3,35 23.5,35 22.7,35 22,34.3 22,33.5 Z m -8,12 C 14,44.7 14.7,44 15.5,44 16.3,44 17,44.7 17,45.5 17,46.3 16.3,47 15.5,47 14.7,47 14,46.3 14,45.5 Z m 4,0 C 18,44.7 18.7,44 19.5,44 20.3,44 21,44.7 21,45.5 21,46.3 20.3,47 19.5,47 18.7,47 18,46.3 18,45.5 Z m 4,0 C 22,44.7 22.7,44 23.5,44 24.3,44 25,44.7 25,45.5 25,46.3 24.3,47 23.5,47 22.7,47 22,46.3 22,45.5 Z m -5,12 C 17,58.3 16.3,59 15.5,59 14.7,59 14,58.3 14,57.5 14,56.7 14.7,56 15.5,56 c 0.8,0 1.5,0.7 1.5,1.5 z m 4,0 C 21,58.3 20.3,59 19.5,59 18.7,59 18,58.3 18,57.5 18,56.7 18.7,56 19.5,56 c 0.8,0 1.5,0.7 1.5,1.5 z m 4,0 C 25,58.3 24.3,59 23.5,59 22.7,59 22,58.3 22,57.5 22,56.7 22.7,56 23.5,56 c 0.8,0 1.5,0.7 1.5,1.5 z m -8,-36 C 17,22.3 16.3,23 15.5,23 14.7,23 14,22.3 14,21.5 14,20.7 14.7,20 15.5,20 c 0.8,0 1.5,0.7 1.5,1.5 z" id="path9776-54-6-7"/> </g> </g> <path style="fill:none;stroke:#f57900;stroke-width:0.53107017px;stroke-linecap:butt;stroke-linejoin:miter;stroke-opacity:1" d="m 117.94639,31.390107 v 47.79632" id="path4655-0-8" inkscape:connector-curvature="0"/> <rect style="opacity:1;fill:#f57900;fill-opacity:1;stroke:none;stroke-width:0.53190649;stroke-linecap:round;stroke-linejoin:round;stroke-miterlimit:4;stroke-dasharray:none;stroke-dashoffset:0;stroke-opacity:1;paint-order:normal" id="rect4743-9-4" width="2.1242561" height="10.621404" x="116.88423" y="35.638672" ry="0.53107017"/> <path style="fill:#f57900;stroke:#f57900;stroke-width:0.63728434;stroke-linecap:butt;stroke-linejoin:miter;stroke-miterlimit:4;stroke-dasharray:none;stroke-opacity:1;marker-end:url(#Arrow2Mend-3-5)" d="M 91.392879,39.35616 H 115.29104" id="path4741-0-3" inkscape:connector-curvature="0" sodipodi:nodetypes="cc"/> <path style="fill:#f57900;stroke:#f57900;stroke-width:0.63728434;stroke-linecap:butt;stroke-linejoin:miter;stroke-miterlimit:4;stroke-dasharray:none;stroke-opacity:1;marker-end:url(#Arrow2Mend-3-5-6)" d="M 115.29104,43.467408 H 91.392857" id="path4741-0-3-0" inkscape:connector-curvature="0" sodipodi:nodetypes="cc"/> <text xml:space="preserve" style="font-style:normal;font-variant:normal;font-weight:normal;font-stretch:normal;font-size:11.32949734px;line-height:1.25;font-family:'DejaVu Sans Mono';-inkscape-font-specification:'DejaVu Sans Mono';letter-spacing:0px;word-spacing:0px;fill:#000000;fill-opacity:1;stroke:none;stroke-width:0.53107017" x="76.127007" y="10.521174" id="text7793"><tspan sodipodi:role="line" id="tspan7791" x="76.127007" y="10.521174" style="font-style:normal;font-variant:normal;font-weight:normal;font-stretch:normal;font-size:5.66474867px;font-family:'Source Sans Pro';-inkscape-font-specification:'Source Sans Pro, Normal';font-variant-ligatures:normal;font-variant-caps:normal;font-variant-numeric:normal;font-feature-settings:normal;text-align:start;writing-mode:lr-tb;text-anchor:start;stroke-width:0.53107017">http &amp; php</tspan></text> <text xml:space="preserve" style="font-style:normal;font-variant:normal;font-weight:normal;font-stretch:normal;font-size:11.32949734px;line-height:1.25;font-family:'DejaVu Sans Mono';-inkscape-font-specification:'DejaVu Sans Mono';letter-spacing:0px;word-spacing:0px;fill:#000000;fill-opacity:1;stroke:none;stroke-width:0.53107017" x="112.34521" y="10.46736" id="text7793-2"><tspan sodipodi:role="line" id="tspan7791-3" x="112.34521" y="10.46736" style="font-style:normal;font-variant:normal;font-weight:normal;font-stretch:normal;font-size:5.66474867px;font-family:'Source Sans Pro';-inkscape-font-specification:'Source Sans Pro, Normal';font-variant-ligatures:normal;font-variant-caps:normal;font-variant-numeric:normal;font-feature-settings:normal;text-align:start;writing-mode:lr-tb;text-anchor:start;stroke-width:0.53107017">sgbd</tspan></text> <rect style="opacity:1;fill:#f57900;fill-opacity:1;stroke:none;stroke-width:0.53190649;stroke-linecap:round;stroke-linejoin:round;stroke-miterlimit:4;stroke-dasharray:none;stroke-dashoffset:0;stroke-opacity:1;paint-order:normal" id="rect4743-9-8" width="2.1242561" height="10.621404" x="87.675423" y="69.096085" ry="0.53107017"/> <text xml:space="preserve" style="font-style:normal;font-variant:normal;font-weight:normal;font-stretch:normal;font-size:11.32949734px;line-height:1.25;font-family:'DejaVu Sans Mono';-inkscape-font-specification:'DejaVu Sans Mono';letter-spacing:0px;word-spacing:0px;fill:#000000;fill-opacity:1;stroke:none;stroke-width:0.53107017" x="20.364635" y="10.521174" id="text7793-6"><tspan sodipodi:role="line" id="tspan7791-6" x="20.364635" y="10.521174" style="font-style:normal;font-variant:normal;font-weight:normal;font-stretch:normal;font-size:5.66474867px;font-family:'Source Sans Pro';-inkscape-font-specification:'Source Sans Pro, Normal';font-variant-ligatures:normal;font-variant-caps:normal;font-variant-numeric:normal;font-feature-settings:normal;text-align:start;writing-mode:lr-tb;text-anchor:start;stroke-width:0.53107017">browser</tspan></text> <path style="fill:#f57900;stroke:#f57900;stroke-width:0.63728434;stroke-linecap:butt;stroke-linejoin:miter;stroke-miterlimit:4;stroke-dasharray:none;stroke-opacity:1;marker-end:url(#Arrow2Mend-3-5-90)" d="M 91.392901,72.419827 H 115.29106" id="path4741-0-3-03" inkscape:connector-curvature="0" sodipodi:nodetypes="cc"/> <path style="fill:#f57900;stroke:#f57900;stroke-width:0.63728434;stroke-linecap:butt;stroke-linejoin:miter;stroke-miterlimit:4;stroke-dasharray:none;stroke-opacity:1;marker-end:url(#Arrow2Mend-3-5-6-9)" d="M 115.29106,76.531075 H 91.392879" id="path4741-0-3-0-7" inkscape:connector-curvature="0" sodipodi:nodetypes="cc"/> <g style="display:inline" id="g9116-0-6" transform="matrix(0.81486576,0,0,0.81486576,-4.8587213,-28.377974)"> <rect ry="0.6547479" y="84.11982" x="23.252451" height="10.874835" width="14.4908" id="rect9102-6-9" style="opacity:1;fill:#ffffff;fill-opacity:1;stroke:none;stroke-width:0.52916664;stroke-linecap:round;stroke-linejoin:round;stroke-miterlimit:4;stroke-dasharray:none;stroke-dashoffset:0;stroke-opacity:1"/> <switch id="switch18-2-2" transform="matrix(0.1553823,0,0,0.1553823,170.14964,-65.931063)"> <foreignObject height="1" width="1" y="0" x="0" requiredExtensions="http://ns.adobe.com/AdobeIllustrator/10.0/"/> <g id="g16-9-1" i:extraneous="self"> <g id="g14-9-7"> <path id="path2-3-0-7" d="m -899,1026.4 c 11.2,0 20.3,-9.1 20.3,-20.3 0,-11.2 -9.1,-20.3 -20.3,-20.3 -11.2,0 -20.3,9.1 -20.3,20.3 0,11.2 9.1,20.3 20.3,20.3 z m -12.7,-7.8 c 0.1,0 0.1,-0.1 0.2,-0.1 1.4,-0.7 3,-1.3 4.6,-1.8 0.8,2.3 1.9,4.5 3.3,6.4 0.1,0.1 0.1,0.2 0.2,0.3 -3.3,-0.9 -6.1,-2.6 -8.3,-4.8 z m 20,-11.2 v 0 c -0.1,2.2 -0.4,4.4 -1,6.4 -2,-0.4 -4.1,-0.6 -6.3,-0.6 -2.2,0 -4.3,0.2 -6.3,0.6 -0.6,-2 -0.9,-4.2 -1,-6.4 v 0 z m -14.6,-2.5 c 0.1,-2.2 0.4,-4.4 1,-6.4 2,0.4 4.1,0.6 6.3,0.6 2.2,0 4.3,-0.2 6.3,-0.6 0.6,2 0.9,4.2 1,6.4 z m 8.2,19 c -0.3,0 -0.6,0 -0.9,0 -0.3,0 -0.6,0 -0.9,0 -0.1,-0.1 -0.1,-0.1 -0.2,-0.2 -1.8,-2.1 -3.3,-4.7 -4.4,-7.5 1.8,-0.3 3.6,-0.5 5.6,-0.5 2,0 3.8,0.2 5.6,0.5 -1.1,2.9 -2.6,5.4 -4.4,7.5 -0.2,0.1 -0.3,0.1 -0.4,0.2 z m 3.6,-0.5 c 0.1,-0.1 0.1,-0.2 0.2,-0.3 1.3,-1.9 2.4,-4 3.3,-6.4 1.6,0.5 3.1,1 4.6,1.7 0.1,0 0.1,0.1 0.2,0.1 -2.3,2.3 -5.1,4 -8.3,4.9 z m 9.8,-6.7 c -0.1,0 -0.1,-0.1 -0.2,-0.1 -1.7,-0.9 -3.5,-1.6 -5.5,-2.2 0.6,-2.2 1,-4.6 1.1,-7 v 0 h 8 c -0.2,3.4 -1.4,6.6 -3.4,9.3 z m 0,-21.1 c 1.9,2.6 3.2,5.8 3.4,9.3 h -8 c -0.1,-2.4 -0.5,-4.8 -1.1,-7 1.9,-0.6 3.8,-1.3 5.5,-2.2 0.1,0 0.2,-0.1 0.2,-0.1 z m -1.6,-1.9 c -0.1,0 -0.1,0.1 -0.2,0.1 -1.4,0.7 -3,1.3 -4.6,1.7 -0.8,-2.3 -1.9,-4.5 -3.3,-6.4 -0.1,-0.1 -0.1,-0.2 -0.2,-0.3 3.3,0.9 6.1,2.6 8.3,4.9 z m -13.6,-5.3 c 0.3,0 0.6,0 0.9,0 0.3,0 0.6,0 0.9,0 0.1,0.1 0.1,0.1 0.2,0.2 1.8,2.1 3.3,4.7 4.4,7.5 -1.8,0.3 -3.6,0.5 -5.6,0.5 -2,0 -3.8,-0.2 -5.6,-0.5 1.1,-2.9 2.6,-5.4 4.4,-7.5 0.2,-0.1 0.3,-0.2 0.4,-0.2 z m -3.6,0.5 c -0.1,0.1 -0.1,0.2 -0.2,0.3 -1.3,1.9 -2.4,4 -3.3,6.4 -1.6,-0.5 -3.1,-1 -4.6,-1.7 -0.1,0 -0.1,-0.1 -0.2,-0.1 2.3,-2.4 5.1,-4.1 8.3,-4.9 z m -9.8,6.7 c 0.1,0 0.1,0.1 0.2,0.1 1.7,0.9 3.5,1.6 5.5,2.2 -0.6,2.2 -1,4.6 -1.1,7 h -8 c 0.2,-3.5 1.4,-6.7 3.4,-9.3 z m 4.5,11.8 v 0 c 0.1,2.4 0.5,4.8 1.1,7 -1.9,0.6 -3.8,1.3 -5.5,2.2 -0.1,0 -0.1,0.1 -0.2,0.1 -1.9,-2.6 -3.2,-5.8 -3.4,-9.3 z" inkscape:connector-curvature="0"/> <path id="path4-6-8-9" d="m -855.3,964.1 h -87.3 c -2.9,0 -5.3,2.4 -5.3,5.3 v 63.1 c 0,2.9 2.4,5.3 5.3,5.3 h 87.3 c 2.9,0 5.3,-2.4 5.3,-5.3 v -63.1 c 0,-2.9 -2.4,-5.3 -5.3,-5.3 z m 2.5,68.5 c 0,1.4 -1.1,2.5 -2.5,2.5 h -87.3 c -1.4,0 -2.5,-1.1 -2.5,-2.5 v -54.7 h 92.4 v 54.7 z m 0,-57.5 h -92.4 v -5.7 c 0,-1.4 1.1,-2.5 2.5,-2.5 h 87.3 c 1.4,0 2.5,1.1 2.5,2.5 v 5.7 z" inkscape:connector-curvature="0"/> <path id="path6-1-7" d="m -881.4,969.6 h -35.3 c -0.8,0 -1.4,0.6 -1.4,1.4 0,0.8 0.6,1.4 1.4,1.4 h 35.3 c 0.8,0 1.4,-0.6 1.4,-1.4 0,-0.8 -0.6,-1.4 -1.4,-1.4 z" inkscape:connector-curvature="0"/> <circle id="circle8-3-6" r="1.4" cy="971" cx="-941.20001"/> <circle id="circle10-1-2" r="1.4" cy="971" cx="-936.59998"/> <circle id="circle12-1-7" r="1.4" cy="971" cx="-931.90002"/> </g> </g> </switch> </g> <g style="display:inline" id="g9116-0-6-1" transform="matrix(0.81486576,0,0,0.81486576,-4.0689293,3.2301429)"> <rect ry="0.6547479" y="84.11982" x="23.252451" height="10.874835" width="14.4908" id="rect9102-6-9-5" style="opacity:1;fill:#ffffff;fill-opacity:1;stroke:none;stroke-width:0.52916664;stroke-linecap:round;stroke-linejoin:round;stroke-miterlimit:4;stroke-dasharray:none;stroke-dashoffset:0;stroke-opacity:1"/> <switch id="switch18-2-2-8" transform="matrix(0.1553823,0,0,0.1553823,170.14964,-65.931063)"> <foreignObject height="1" width="1" y="0" x="0" requiredExtensions="http://ns.adobe.com/AdobeIllustrator/10.0/"/> <g id="g16-9-1-8" i:extraneous="self"> <g id="g14-9-7-4"> <path id="path2-3-0-7-5" d="m -899,1026.4 c 11.2,0 20.3,-9.1 20.3,-20.3 0,-11.2 -9.1,-20.3 -20.3,-20.3 -11.2,0 -20.3,9.1 -20.3,20.3 0,11.2 9.1,20.3 20.3,20.3 z m -12.7,-7.8 c 0.1,0 0.1,-0.1 0.2,-0.1 1.4,-0.7 3,-1.3 4.6,-1.8 0.8,2.3 1.9,4.5 3.3,6.4 0.1,0.1 0.1,0.2 0.2,0.3 -3.3,-0.9 -6.1,-2.6 -8.3,-4.8 z m 20,-11.2 v 0 c -0.1,2.2 -0.4,4.4 -1,6.4 -2,-0.4 -4.1,-0.6 -6.3,-0.6 -2.2,0 -4.3,0.2 -6.3,0.6 -0.6,-2 -0.9,-4.2 -1,-6.4 v 0 z m -14.6,-2.5 c 0.1,-2.2 0.4,-4.4 1,-6.4 2,0.4 4.1,0.6 6.3,0.6 2.2,0 4.3,-0.2 6.3,-0.6 0.6,2 0.9,4.2 1,6.4 z m 8.2,19 c -0.3,0 -0.6,0 -0.9,0 -0.3,0 -0.6,0 -0.9,0 -0.1,-0.1 -0.1,-0.1 -0.2,-0.2 -1.8,-2.1 -3.3,-4.7 -4.4,-7.5 1.8,-0.3 3.6,-0.5 5.6,-0.5 2,0 3.8,0.2 5.6,0.5 -1.1,2.9 -2.6,5.4 -4.4,7.5 -0.2,0.1 -0.3,0.1 -0.4,0.2 z m 3.6,-0.5 c 0.1,-0.1 0.1,-0.2 0.2,-0.3 1.3,-1.9 2.4,-4 3.3,-6.4 1.6,0.5 3.1,1 4.6,1.7 0.1,0 0.1,0.1 0.2,0.1 -2.3,2.3 -5.1,4 -8.3,4.9 z m 9.8,-6.7 c -0.1,0 -0.1,-0.1 -0.2,-0.1 -1.7,-0.9 -3.5,-1.6 -5.5,-2.2 0.6,-2.2 1,-4.6 1.1,-7 v 0 h 8 c -0.2,3.4 -1.4,6.6 -3.4,9.3 z m 0,-21.1 c 1.9,2.6 3.2,5.8 3.4,9.3 h -8 c -0.1,-2.4 -0.5,-4.8 -1.1,-7 1.9,-0.6 3.8,-1.3 5.5,-2.2 0.1,0 0.2,-0.1 0.2,-0.1 z m -1.6,-1.9 c -0.1,0 -0.1,0.1 -0.2,0.1 -1.4,0.7 -3,1.3 -4.6,1.7 -0.8,-2.3 -1.9,-4.5 -3.3,-6.4 -0.1,-0.1 -0.1,-0.2 -0.2,-0.3 3.3,0.9 6.1,2.6 8.3,4.9 z m -13.6,-5.3 c 0.3,0 0.6,0 0.9,0 0.3,0 0.6,0 0.9,0 0.1,0.1 0.1,0.1 0.2,0.2 1.8,2.1 3.3,4.7 4.4,7.5 -1.8,0.3 -3.6,0.5 -5.6,0.5 -2,0 -3.8,-0.2 -5.6,-0.5 1.1,-2.9 2.6,-5.4 4.4,-7.5 0.2,-0.1 0.3,-0.2 0.4,-0.2 z m -3.6,0.5 c -0.1,0.1 -0.1,0.2 -0.2,0.3 -1.3,1.9 -2.4,4 -3.3,6.4 -1.6,-0.5 -3.1,-1 -4.6,-1.7 -0.1,0 -0.1,-0.1 -0.2,-0.1 2.3,-2.4 5.1,-4.1 8.3,-4.9 z m -9.8,6.7 c 0.1,0 0.1,0.1 0.2,0.1 1.7,0.9 3.5,1.6 5.5,2.2 -0.6,2.2 -1,4.6 -1.1,7 h -8 c 0.2,-3.5 1.4,-6.7 3.4,-9.3 z m 4.5,11.8 v 0 c 0.1,2.4 0.5,4.8 1.1,7 -1.9,0.6 -3.8,1.3 -5.5,2.2 -0.1,0 -0.1,0.1 -0.2,0.1 -1.9,-2.6 -3.2,-5.8 -3.4,-9.3 z" inkscape:connector-curvature="0"/> <path id="path4-6-8-9-6" d="m -855.3,964.1 h -87.3 c -2.9,0 -5.3,2.4 -5.3,5.3 v 63.1 c 0,2.9 2.4,5.3 5.3,5.3 h 87.3 c 2.9,0 5.3,-2.4 5.3,-5.3 v -63.1 c 0,-2.9 -2.4,-5.3 -5.3,-5.3 z m 2.5,68.5 c 0,1.4 -1.1,2.5 -2.5,2.5 h -87.3 c -1.4,0 -2.5,-1.1 -2.5,-2.5 v -54.7 h 92.4 v 54.7 z m 0,-57.5 h -92.4 v -5.7 c 0,-1.4 1.1,-2.5 2.5,-2.5 h 87.3 c 1.4,0 2.5,1.1 2.5,2.5 v 5.7 z" inkscape:connector-curvature="0"/> <path id="path6-1-7-5" d="m -881.4,969.6 h -35.3 c -0.8,0 -1.4,0.6 -1.4,1.4 0,0.8 0.6,1.4 1.4,1.4 h 35.3 c 0.8,0 1.4,-0.6 1.4,-1.4 0,-0.8 -0.6,-1.4 -1.4,-1.4 z" inkscape:connector-curvature="0"/> <circle id="circle8-3-6-6" r="1.4" cy="971" cx="-941.20001"/> <circle id="circle10-1-2-8" r="1.4" cy="971" cx="-936.59998"/> <circle id="circle12-1-7-4" r="1.4" cy="971" cx="-931.90002"/> </g> </g> </switch> </g> <text xml:space="preserve" style="font-style:normal;font-variant:normal;font-weight:normal;font-stretch:normal;font-size:11.32949734px;line-height:1.25;font-family:'DejaVu Sans Mono';-inkscape-font-specification:'DejaVu Sans Mono';letter-spacing:0px;word-spacing:0px;fill:#000000;fill-opacity:1;stroke:none;stroke-width:0.53107017" x="47.088104" y="23.517059" id="text9341"><tspan sodipodi:role="line" id="tspan9339" x="47.088104" y="23.517059" style="font-style:normal;font-variant:normal;font-weight:normal;font-stretch:normal;font-size:9.20521641px;font-family:'DejaVu Sans Mono';-inkscape-font-specification:'DejaVu Sans Mono, Normal';font-variant-ligatures:normal;font-variant-caps:normal;font-variant-numeric:normal;font-feature-settings:normal;text-align:start;writing-mode:lr-tb;text-anchor:start;stroke-width:0.53107017"><tspan style="font-style:normal;font-variant:normal;font-weight:normal;font-stretch:normal;font-size:6.37284231px;font-family:'DejaVu Sans Mono';-inkscape-font-specification:'DejaVu Sans Mono, Normal';font-variant-ligatures:normal;font-variant-caps:normal;font-variant-numeric:normal;font-feature-settings:normal;text-align:start;writing-mode:lr-tb;text-anchor:start;stroke-width:0.53107017" id="tspan9347">t</tspan><tspan style="font-style:normal;font-variant:normal;font-weight:normal;font-stretch:normal;font-size:2.83237433px;font-family:'DejaVu Sans Mono';-inkscape-font-specification:'DejaVu Sans Mono, Normal';font-variant-ligatures:normal;font-variant-caps:normal;font-variant-numeric:normal;font-feature-settings:normal;text-align:start;writing-mode:lr-tb;text-anchor:start;stroke-width:0.53107017" id="tspan9345">0</tspan></tspan></text> <text xml:space="preserve" style="font-style:normal;font-variant:normal;font-weight:normal;font-stretch:normal;font-size:11.32949734px;line-height:1.25;font-family:'DejaVu Sans Mono';-inkscape-font-specification:'DejaVu Sans Mono';letter-spacing:0px;word-spacing:0px;fill:#000000;fill-opacity:1;stroke:none;stroke-width:0.53107017" x="6.1957002" y="46.884148" id="text9341-7"><tspan sodipodi:role="line" id="tspan9339-4" x="6.1957002" y="46.884148" style="font-style:normal;font-variant:normal;font-weight:normal;font-stretch:normal;font-size:9.20521641px;font-family:'DejaVu Sans Mono';-inkscape-font-specification:'DejaVu Sans Mono, Normal';font-variant-ligatures:normal;font-variant-caps:normal;font-variant-numeric:normal;font-feature-settings:normal;text-align:start;writing-mode:lr-tb;text-anchor:start;stroke-width:0.53107017"><tspan style="font-style:normal;font-variant:normal;font-weight:normal;font-stretch:normal;font-size:6.37284231px;font-family:'DejaVu Sans Mono';-inkscape-font-specification:'DejaVu Sans Mono, Normal';font-variant-ligatures:normal;font-variant-caps:normal;font-variant-numeric:normal;font-feature-settings:normal;text-align:start;writing-mode:lr-tb;text-anchor:start;stroke-width:0.53107017" id="tspan9347-3">t</tspan><tspan style="font-style:normal;font-variant:normal;font-weight:normal;font-stretch:normal;font-size:2.83237433px;font-family:'DejaVu Sans Mono';-inkscape-font-specification:'DejaVu Sans Mono, Normal';font-variant-ligatures:normal;font-variant-caps:normal;font-variant-numeric:normal;font-feature-settings:normal;text-align:start;writing-mode:lr-tb;text-anchor:start;stroke-width:0.53107017" id="tspan9345-5">1</tspan></tspan></text> <text xml:space="preserve" style="font-style:normal;font-variant:normal;font-weight:normal;font-stretch:normal;font-size:11.32949734px;line-height:1.25;font-family:'DejaVu Sans Mono';-inkscape-font-specification:'DejaVu Sans Mono';letter-spacing:0px;word-spacing:0px;fill:#000000;fill-opacity:1;stroke:none;stroke-width:0.53107017" x="7.2620072" y="77.706268" id="text9341-7-8"><tspan sodipodi:role="line" id="tspan9339-4-1" x="7.2620072" y="77.706268" style="font-style:normal;font-variant:normal;font-weight:normal;font-stretch:normal;font-size:9.20521641px;font-family:'DejaVu Sans Mono';-inkscape-font-specification:'DejaVu Sans Mono, Normal';font-variant-ligatures:normal;font-variant-caps:normal;font-variant-numeric:normal;font-feature-settings:normal;text-align:start;writing-mode:lr-tb;text-anchor:start;stroke-width:0.53107017"><tspan style="font-style:normal;font-variant:normal;font-weight:normal;font-stretch:normal;font-size:6.37284231px;font-family:'DejaVu Sans Mono';-inkscape-font-specification:'DejaVu Sans Mono, Normal';font-variant-ligatures:normal;font-variant-caps:normal;font-variant-numeric:normal;font-feature-settings:normal;text-align:start;writing-mode:lr-tb;text-anchor:start;stroke-width:0.53107017" id="tspan9347-3-0">t</tspan><tspan style="font-style:normal;font-variant:normal;font-weight:normal;font-stretch:normal;font-size:2.83237433px;font-family:'DejaVu Sans Mono';-inkscape-font-specification:'DejaVu Sans Mono, Normal';font-variant-ligatures:normal;font-variant-caps:normal;font-variant-numeric:normal;font-feature-settings:normal;text-align:start;writing-mode:lr-tb;text-anchor:start;stroke-width:0.53107017" id="tspan9345-5-7">2</tspan></tspan></text> </g>
</svg>